…
nhkcovid
#> # A tibble: 44,368 × 15
#>    date       rmean7 tokyo tokyo_r…¹ tokyo…² wday  pref_…³ jpref case_…⁴ case_…⁵
#>    <date>      <dbl> <dbl>     <dbl>   <dbl> <ord> <chr>   <chr>   <dbl>   <dbl>
#>  1 2020-01-16      0     0         0       0 木    01      北海…       0       0
#>  2 2020-01-17      0     0         0       0 金    01      北海…       0       0
#>  3 2020-01-18      0     0         0       0 土    01      北海…       0       0
#>  4 2020-01-19      0     0         0       0 日    01      北海…       0       0
#>  5 2020-01-20      0     0         0       0 月    01      北海…       0       0
#>  6 2020-01-21      0     0         0       0 火    01      北海…       0       0
#>  7 2020-01-22      0     0         0       0 水    01      北海…       0       0
#>  8 2020-01-23      0     0         0       0 木    01      北海…       0       0
#>  9 2020-01-24      0     1         0       0 金    01      北海…       0       0
#> 10 2020-01-25      0     1         0       0 土    01      北海…       0       0
#> # … with 44,358 more rows, 5 more variables: death_day <dbl>, death_cum <dbl>,
#> #   case_per_hund_thd_week <dbl>, prefecture <chr>, pref <chr>, and abbreviated
#> #   variable names ¹​tokyo_ratio, ²​tokyo_power, ³​pref_code, ⁴​case_day, ⁵​case_cum
#> # ℹ Use `print(n = ...)` to see more rows, and `colnames()` to see all variable names
…
